{
	"openapi": "3.0.1",
	"info": {
		"title": "Bank API",
		"description": " Describing Bank Details",
		"version": "3.0"
	},
	"servers": [
		{
			"url": "http://www.bankofamerica.com",
			"description": "Generated server url"
		}
	],
	"tags": [
		{
			"name": "Account Requests",
			"description": "Account Requests"
		},
		{
			"name": "Accounts",
			"description": "Accounts"
		},
		{
			"name": "Balances",
			"description": "Balances"
		},
		{
			"name": "Beneficiaries",
			"description": "Beneficiaries"
		},
		{
			"name": "Direct Debits",
			"description": "Direct Debits"
		},
		{
			"name": "Offers",
			"description": "Offers"
		},
		{
			"name": "Products",
			"description": "Products"
		},
		{
			"name": "Scheduled Payments",
			"description": "Scheduled Payments"
		},
		{
			"name": "Standing Orders",
			"description": "Standing Orders"
		},
		{
			"name": "Statements",
			"description": "Statements"
		},
		{
			"name": "Transactions",
			"description": "Transactions"
		}
	],
	"paths": {
		"/account-access-consents/{ConsentId}": {
			"get": {
				"tags": [
					"Account Requests"
				],
				"description": "",
				"operationId": "accountAccessConsentsById",
				"parameters": [
					{
						"name": "ConsentId",
						"in": "path",
						"required": true,
						"schema": {
							"type": "integer",
							"format": "int32"
						}
					}
				],
				"responses": {
					"200": {
						"description": "default response",
						"headers": {
							"X-Rate-Limit": {
								"description": "calls per hour allowed by the user",
								"schema": {
									"type": "integer",
									"format": "int32"
								}
							},
							"X-Expires-After": {
								"description": "date in UTC when toekn expires",
								"schema": {
									"type": "string",
									"format": "date-time"
								}
							}
						},
						"content": {
							"*/*": {
								"schema": {
									"type": "integer",
									"format": "int32"
								}
							}
						}
					}
				}
			}
		},
		"/customer/customer-access-consents/{ConsentId}": {
			"get": {
				"tags": [
					"Account Requests"
				],
				"description": "",
				"operationId": "customerAccessConsentsById",
				"parameters": [
					{
						"name": "ConsentId",
						"in": "path",
						"required": true,
						"schema": {
							"type": "integer",
							"format": "int32"
						}
					}
				],
				"responses": {
					"200": {
						"description": "default response",
						"content": {
							"*/*": {
								"schema": {
									"type": "integer",
									"format": "int32"
								}
							}
						}
					}
				}
			}
		},
		"/offers": {
			"get": {
				"tags": [
					"Account Requests"
				],
				"description": "",
				"operationId": "offers",
				"responses": {
					"200": {
						"description": "default response"
					}
				}
			}
		},
		"/StandingOrders": {
			"get": {
				"tags": [
					"Account Requests"
				],
				"description": "",
				"operationId": "so",
				"responses": {
					"200": {
						"description": "default response",
						"content": {
							"*/*": {
								"schema": {
									"type": "string"
								}
							}
						}
					}
				}
			}
		},
		"/party": {
			"get": {
				"tags": [
					"Account Requests"
				],
				"description": "",
				"operationId": "party",
				"responses": {
					"200": {
						"description": "default response"
					}
				}
			}
		},
		"/statements": {
			"get": {
				"tags": [
					"Account Requests"
				],
				"description": "",
				"operationId": "statements",
				"responses": {
					"200": {
						"description": "default response",
						"content": {
							"*/*": {
								"schema": {
									"type": "string"
								}
							}
						}
					}
				}
			}
		},
		"/balances": {
			"get": {
				"tags": [
					"Account Requests"
				],
				"description": "",
				"operationId": "balances",
				"parameters": [
					{
						"name": "custDetails",
						"in": "query",
						"required": true,
						"schema": {
							"type": "integer",
							"format": "int32"
						}
					}
				],
				"responses": {
					"200": {
						"description": "default response"
					}
				}
			}
		},
		"/DirectDebits": {
			"get": {
				"tags": [
					"Account Requests"
				],
				"description": "",
				"operationId": "directDebits",
				"responses": {
					"200": {
						"description": "default response",
						"content": {
							"*/*": {
								"schema": {
									"type": "string"
								}
							}
						}
					}
				}
			}
		},
		"/accounts/{AccountId}": {
			"get": {
				"tags": [
					"Account Requests"
				],
				"description": "",
				"operationId": "accountsAccountId",
				"parameters": [
					{
						"name": "AccountId",
						"in": "path",
						"required": true,
						"schema": {
							"type": "integer",
							"format": "int32"
						}
					}
				],
				"responses": {
					"200": {
						"description": "default response"
					}
				}
			}
		},
		"/transactions": {
			"put": {
				"tags": [
					"Account Requests"
				],
				"description": "",
				"operationId": "transactions",
				"requestBody": {
					"content": {
						"application/json": {
							"schema": {
								"type": "integer",
								"format": "int32"
							}
						}
					}
				},
				"responses": {
					"200": {
						"description": "default response"
					}
				}
			}
		},
		"/accounts/{AccountId}/balances": {
			"post": {
				"tags": [
					"Account Requests"
				],
				"description": "",
				"operationId": "accountsAccountIdBalance",
				"parameters": [
					{
						"name": "AccountId",
						"in": "path",
						"required": true,
						"schema": {
							"type": "integer",
							"format": "int32"
						}
					}
				],
				"responses": {
					"200": {
						"description": "default response"
					}
				}
			}
		},
		"/accounts/{AccountId}/beneficiaries": {
			"post": {
				"tags": [
					"Account Requests"
				],
				"description": "",
				"operationId": "accountsAccountIdBeneficiaries",
				"parameters": [
					{
						"name": "AccountId",
						"in": "path",
						"required": true,
						"schema": {
							"type": "integer",
							"format": "int32"
						}
					}
				],
				"responses": {
					"200": {
						"description": "default response"
					}
				}
			}
		},
		"/products": {
			"get": {
				"tags": [
					"Account Requests"
				],
				"description": "",
				"operationId": "products",
				"responses": {
					"200": {
						"description": "default response"
					}
				}
			}
		},
		"/accounts/{AccountId}/statements": {
			"get": {
				"tags": [
					"Account Requests"
				],
				"description": "",
				"operationId": "accountsAccountIdStatements",
				"parameters": [
					{
						"name": "AccountId",
						"in": "path",
						"required": true,
						"schema": {
							"type": "integer",
							"format": "int32"
						}
					}
				],
				"responses": {
					"200": {
						"description": "default response"
					}
				}
			}
		},
		"/account-access-consents": {
			"post": {
				"tags": [
					"Account Requests"
				],
				"description": "",
				"operationId": "accountAccessConsents",
				"responses": {
					"200": {
						"description": "default response"
					}
				}
			}
		},
		"/SchedulePayments": {
			"get": {
				"tags": [
					"Account Requests"
				],
				"description": "",
				"operationId": "sps",
				"responses": {
					"200": {
						"description": "default response",
						"content": {
							"*/*": {
								"schema": {
									"type": "string"
								}
							}
						}
					}
				}
			}
		},
		"/accounts": {
			"delete": {
				"tags": [
					"Account Requests"
				],
				"description": "",
				"operationId": "accounts",
				"requestBody": {
					"content": {
						"application/json": {
							"schema": {
								"type": "string"
							}
						}
					}
				},
				"responses": {
					"200": {
						"description": "default response"
					}
				}
			}
		}
	},
	"components": {
		"schemas": {
			"Order": {
				"type": "object",
				"properties": {
					"id": {
						"type": "integer",
						"format": "int64",
						"example": 10
					},
					"BankId": {
						"type": "integer",
						"format": "int64",
						"example": 198772
					},
					"quantity": {
						"type": "integer",
						"format": "int32",
						"example": 7
					},
					"shipDate": {
						"type": "string",
						"format": "date-time"
					},
					"status": {
						"type": "string",
						"description": "Order Status",
						"example": "approved",
						"enum": [
							"placed",
							"approved",
							"delivered"
						]
					},
					"complete": {
						"type": "boolean"
					}
				},
				"xml": {
					"name": "order"
				}
			},
			"Customer": {
				"type": "object",
				"properties": {
					"id": {
						"type": "integer",
						"format": "int64",
						"example": 100000
					},
					"username": {
						"type": "string",
						"example": "fehguy"
					},
					"address": {
						"type": "array",
						"xml": {
							"name": "addresses",
							"wrapped": true
						},
						"items": {
							"$ref": "#/components/schemas/Address"
						}
					}
				},
				"xml": {
					"name": "customer"
				}
			},
			"Address": {
				"type": "object",
				"properties": {
					"street": {
						"type": "string",
						"example": "437 Lytton"
					},
					"city": {
						"type": "string",
						"example": "Palo Alto"
					},
					"state": {
						"type": "string",
						"example": "CA"
					},
					"zip": {
						"type": "string",
						"example": "94301"
					}
				},
				"xml": {
					"name": "address"
				}
			},
			"Category": {
				"type": "object",
				"properties": {
					"id": {
						"type": "integer",
						"format": "int64",
						"example": 1
					},
					"name": {
						"type": "string",
						"example": "Balances"
					}
				},
				"xml": {
					"name": "category"
				}
			},
			"User": {
				"type": "object",
				"properties": {
					"id": {
						"type": "integer",
						"format": "int64",
						"example": 10
					},
					"username": {
						"type": "string",
						"example": "theUser"
					},
					"firstName": {
						"type": "string",
						"example": "John"
					},
					"lastName": {
						"type": "string",
						"example": "James"
					},
					"email": {
						"type": "string",
						"example": "john@email.com"
					},
					"password": {
						"type": "string",
						"example": "12345"
					},
					"phone": {
						"type": "string",
						"example": "12345"
					},
					"userStatus": {
						"type": "integer",
						"description": "User Status",
						"format": "int32",
						"example": 1
					}
				},
				"xml": {
					"name": "user"
				}
			},
			"Tag": {
				"type": "object",
				"properties": {
					"id": {
						"type": "integer",
						"format": "int64"
					},
					"name": {
						"type": "string"
					}
				},
				"xml": {
					"name": "tag"
				}
			},
			"Bank": {
				"required": [
					"name",
					"photoUrls"
				],
				"type": "object",
				"properties": {
					"id": {
						"type": "integer",
						"format": "int64",
						"example": 10
					},
					"name": {
						"type": "string",
						"example": "Balance"
					},
					"category": {
						"$ref": "#/components/schemas/Category"
					},
					"photoUrls": {
						"type": "array",
						"xml": {
							"wrapped": true
						},
						"items": {
							"type": "string",
							"xml": {
								"name": "photoUrl"
							}
						}
					},
					"tags": {
						"type": "array",
						"xml": {
							"wrapped": true
						},
						"items": {
							"$ref": "#/components/schemas/Tag"
						}
					},
					"status": {
						"type": "string",
						"description": "Balance status in the account",
						"enum": [
							"available",
							"pending",
							"sold"
						]
					}
				},
				"xml": {
					"name": "bank"
				}
			},
			"ApiResponse": {
				"type": "object",
				"properties": {
					"code": {
						"type": "integer",
						"format": "int32"
					},
					"type": {
						"type": "string"
					},
					"message": {
						"type": "string"
					}
				},
				"xml": {
					"name": "##default"
				}
			}
		},
		"requestBodies": {
			"bank": {
				"description": "Bank object that needs to be added to the store",
				"content": {
					"application/json": {
						"schema": {
							"$ref": "#/components/schemas/Bank"
						}
					},
					"application/xml": {
						"schema": {
							"$ref": "#/components/schemas/Bank"
						}
					}
				}
			},
			"UserArray": {
				"description": "List of user object",
				"content": {
					"application/json": {
						"schema": {
							"type": "array",
							"items": {
								"$ref": "#/components/schemas/User"
							}
						}
					}
				}
			}
		},
		"securitySchemes": {
			"BanlanceAccount_auth": {
				"type": "oauth2",
				"flows": {
					"implicit": {
						"authorizationUrl": "https://localhost/oauth/authorize",
						"scopes": {
							"write:bank": "modify balances in your account",
							"read:bank": "read your bank"
						}
					}
				}
			},
			"api_key": {
				"type": "apiKey",
				"name": "api_key",
				"in": "header"
			}
		}
	}
}